…
#> #> [1]  2  4  6 10 14 22 26
#> 
#> This makes it easier to explain individual functions at the cost of making it harder to see how it might apply to your data problems. Just remember that any manipulation we do to a free-floating vector, you can do to a variable inside a data frame with mutate() and friends.
#> 
#> -------
#> # Excerpt from the book "R for Data Science (2e)"
#> chapter: 12 Logical vectors
#> section: 12.3 Boolean algebra
#> content: flights |> 
#>   mutate(
#>     nov = month == 11,
#>     final = nov | 12,
#>     .keep = "used"
#>   )
#> #> # A tibble: 336,776 × 3
#> #>   month nov   final
#> #>   <int> <lgl> <lgl>
#> #> 1     1 FALSE TRUE 
#> #> 2     1 FALSE TRUE 
#> #> 3     1 FALSE TRUE 
#> #> 4     1 FALSE TRUE 
#> #> 5     1 FALSE TRUE 
#> #> 6     1 FALSE TRUE 
#> #> # ℹ 336,770 more rows
…
