Read an HTML document — ragnar_read_document • ragnar
…
    Examples

file <- tempfile(fileext = ".html")
download.file("https://r4ds.hadley.nz/base-R.html", file, quiet = TRUE)

# with no arguments, returns a single string of the text.
file |> ragnar_read_document() |> str()
#>  chr "Program\n27 A field guide to base R\nR for Data Science (2e)\nWelcome\nPreface to the second edition\nIntroduct"| __truncated__

# use `split_by_tags` to get a named character vector of length > 1
file |>
  ragnar_read_document(split_by_tags = c("h1", "h2", "h3")) |>
  tibble::enframe("tag", "text")
#> # A tibble: 36 × 2
#>    tag   text                                                                   
#>    <chr> <chr>                                                                  
#>  1 ""    "Program\n27 A field guide to base R\nR for Data Science (2e)\nWelcome…
#>  2 "h2"  "Table of contents"                                                    
#>  3 ""    "27.1 Introduction\n27.1.1 Prerequisites\n27.2 Selecting multiple elem…
#>  4 "h1"  "27 A field guide to base R"                                           
#>  5 "h2"  "27.1 Introduction"                                                    
#>  6 ""    "To finish off the programming section, we’re going to give you a quic…
#>  7 "h3"  "27.1.1 Prerequisites"                                                 
#>  8 ""    "This package focuses on base R so doesn’t have any real prerequisites…
#>  9 "h2"  "27.2 Selecting multiple elements with ["                              
#> 10 ""    "[ is used to extract sub-components from vectors and data frames, and…
#> # ℹ 26 more rows
…
# use `split_by_tags` and `frame_by_tags` together to further break up `text`.
file |>
  ragnar_read_document(
    split_by_tags = c("p"),
    frame_by_tags = c("h1", "h2", "h3")
  )
#> # A tibble: 117 × 5
#>    h1                         h2                               h3    tag   text 
#>    <chr>                      <chr>                            <chr> <chr> <chr>
#>  1 NA                         NA                               NA    ""    "Pro…
#>  2 NA                         Table of contents                NA    ""    "27.…
#>  3 27 A field guide to base R 27.1 Introduction                NA    "p"   "To …
#>  4 27 A field guide to base R 27.1 Introduction                NA    "p"   "Thi…
#>  5 27 A field guide to base R 27.1 Introduction                NA    "p"   "Aft…
#>  6 27 A field guide to base R 27.1 Introduction                NA    "p"   "In …
#>  7 27 A field guide to base R 27.1 Introduction                27.1… "p"   "Thi…
#>  8 27 A field guide to base R 27.1 Introduction                27.1… ""    "lib…
#>  9 27 A field guide to base R 27.2 Selecting multiple element… NA    "p"   "[ i…
#> 10 27 A field guide to base R 27.2 Selecting multiple element… 27.2… "p"   "The…
#> # ℹ 107 more rows
…
