Read a document as Markdown — ragnar_read • ragnar
…
# with no arguments, returns a single row data frame.
# the markdown content is in the `text` column.
file |> ragnar_read() |> str()
#> tibble [1 × 3] (S3: tbl_df/tbl/data.frame)
#>  $ origin: chr "/tmp/Rtmp2oJUCM/file1c74c83d442.html"
#>  $ hash  : chr "00585a42cd90063e648b3db1ae3928d7"
#>  $ text  : 'glue' chr "# 27  A field guide to base R – R for Data Science (2e)\n\n1. [Program](./program.html)\n2. [27  A field guide "| __truncated__

# use `split_by_tags` to get a data frame where the text is split by the
# specified tags (e.g., "h1", "h2", "h3")
file |>
  ragnar_read(split_by_tags = c("h1", "h2", "h3"))
#> # A tibble: 37 × 4
#>    origin                               hash                         text  tag  
#>    <chr>                                <chr>                        <chr> <chr>
#>  1 /tmp/Rtmp2oJUCM/file1c74c83d442.html 00585a42cd90063e648b3db1ae3… "# 2… "h1" 
#>  2 /tmp/Rtmp2oJUCM/file1c74c83d442.html 00585a42cd90063e648b3db1ae3… "1. … ""   
#>  3 /tmp/Rtmp2oJUCM/file1c74c83d442.html 00585a42cd90063e648b3db1ae3… "## … "h2" 
#>  4 /tmp/Rtmp2oJUCM/file1c74c83d442.html 00585a42cd90063e648b3db1ae3… "* [… ""   
#>  5 /tmp/Rtmp2oJUCM/file1c74c83d442.html 00585a42cd90063e648b3db1ae3… "# 2… "h1" 
#>  6 /tmp/Rtmp2oJUCM/file1c74c83d442.html 00585a42cd90063e648b3db1ae3… "## … "h2" 
#>  7 /tmp/Rtmp2oJUCM/file1c74c83d442.html 00585a42cd90063e648b3db1ae3… "To … ""   
#>  8 /tmp/Rtmp2oJUCM/file1c74c83d442.html 00585a42cd90063e648b3db1ae3… "###… "h3" 
#>  9 /tmp/Rtmp2oJUCM/file1c74c83d442.html 00585a42cd90063e648b3db1ae3… "Thi… ""   
#> 10 /tmp/Rtmp2oJUCM/file1c74c83d442.html 00585a42cd90063e648b3db1ae3… "## … "h2" 
#> # ℹ 27 more rows
…
# use `split_by_tags` and `frame_by_tags` together to further break up `text`.
file |>
  ragnar_read(
    split_by_tags = c("p"),
    frame_by_tags = c("h1", "h2", "h3")
  )
#> # A tibble: 163 × 7
#>    origin                               hash       text  h1    h2    h3    tag  
#>    <chr>                                <chr>      <chr> <chr> <chr> <chr> <chr>
#>  1 /tmp/Rtmp2oJUCM/file1c74c83d442.html 00585a42c… "1. … # 27… NA    NA    ""   
#>  2 /tmp/Rtmp2oJUCM/file1c74c83d442.html 00585a42c… "[R … # 27… NA    NA    "p"  
#>  3 /tmp/Rtmp2oJUCM/file1c74c83d442.html 00585a42c… "*"   # 27… NA    NA    ""   
#>  4 /tmp/Rtmp2oJUCM/file1c74c83d442.html 00585a42c… "[We… # 27… NA    NA    "p"  
#>  5 /tmp/Rtmp2oJUCM/file1c74c83d442.html 00585a42c… "*"   # 27… NA    NA    ""   
#>  6 /tmp/Rtmp2oJUCM/file1c74c83d442.html 00585a42c… "[Pr… # 27… NA    NA    "p"  
#>  7 /tmp/Rtmp2oJUCM/file1c74c83d442.html 00585a42c… "*"   # 27… NA    NA    ""   
#>  8 /tmp/Rtmp2oJUCM/file1c74c83d442.html 00585a42c… "[In… # 27… NA    NA    "p"  
#>  9 /tmp/Rtmp2oJUCM/file1c74c83d442.html 00585a42c… "*"   # 27… NA    NA    ""   
#> 10 /tmp/Rtmp2oJUCM/file1c74c83d442.html 00585a42c… "[Wh… # 27… NA    NA    "p"  
#> # ℹ 153 more rows
…
