…
# with no arguments, returns a single row data frame.
# the markdown content is in the `text` column.
file |> ragnar_read() |> str()
#> tibble [1 × 3] (S3: tbl_df/tbl/data.frame)
#>  $ origin: chr "/tmp/Rtmpw4ETZK/file1d6b509cea2f.html"
#>  $ hash  : chr "3aa854d11247b3caf1a717c2fbd83da9"
#>  $ text  : <ragnar::MarkdownDocument> chr "# 27  A field guide to base R – R for Data Science (2e)\n\n# 27  A field guide to base R\n\n## 27.1 Introductio"| __truncated__
#>   ..@ origin: chr "/tmp/Rtmpw4ETZK/file1d6b509cea2f.html"

# use `split_by_tags` to get a data frame where the text is split by the
# specified tags (e.g., "h1", "h2", "h3")
file |>
  ragnar_read(split_by_tags = c("h1", "h2", "h3"))
#> # A tibble: 34 × 4
#>    origin                                hash               tag   text 
#>    <chr>                                 <chr>              <chr> <chr>
#>  1 /tmp/Rtmpw4ETZK/file1d6b509cea2f.html 3aa854d11247b3caf… "h1"  "# 2…
#>  2 /tmp/Rtmpw4ETZK/file1d6b509cea2f.html 3aa854d11247b3caf… "h1"  "# 2…
#>  3 /tmp/Rtmpw4ETZK/file1d6b509cea2f.html 3aa854d11247b3caf… "h2"  "## …
#>  4 /tmp/Rtmpw4ETZK/file1d6b509cea2f.html 3aa854d11247b3caf… ""    "To …
#>  5 /tmp/Rtmpw4ETZK/file1d6b509cea2f.html 3aa854d11247b3caf… "h3"  "###…
#>  6 /tmp/Rtmpw4ETZK/file1d6b509cea2f.html 3aa854d11247b3caf… ""    "Thi…
#>  7 /tmp/Rtmpw4ETZK/file1d6b509cea2f.html 3aa854d11247b3caf… "h2"  "## …
#>  8 /tmp/Rtmpw4ETZK/file1d6b509cea2f.html 3aa854d11247b3caf… ""    "`[`…
#>  9 /tmp/Rtmpw4ETZK/file1d6b509cea2f.html 3aa854d11247b3caf… "h3"  "###…
#> 10 /tmp/Rtmpw4ETZK/file1d6b509cea2f.html 3aa854d11247b3caf… ""    "The…
#> # ℹ 24 more rows
…
# use `split_by_tags` and `frame_by_tags` together to further break up `text`.
file |>
  ragnar_read(
    split_by_tags = c("p"),
    frame_by_tags = c("h1", "h2", "h3")
  )
#> # A tibble: 120 × 7
#>    origin                           hash  h1    h2    h3    tag   text 
#>    <chr>                            <chr> <chr> <chr> <chr> <chr> <chr>
#>  1 /tmp/Rtmpw4ETZK/file1d6b509cea2… 3aa8… # 27… NA    NA     NA    NA  
#>  2 /tmp/Rtmpw4ETZK/file1d6b509cea2… 3aa8… # 27… ## 2… NA    "p"   "To …
#>  3 /tmp/Rtmpw4ETZK/file1d6b509cea2… 3aa8… # 27… ## 2… NA    "p"   "Thi…
#>  4 /tmp/Rtmpw4ETZK/file1d6b509cea2… 3aa8… # 27… ## 2… NA    "p"   "Aft…
#>  5 /tmp/Rtmpw4ETZK/file1d6b509cea2… 3aa8… # 27… ## 2… NA    "p"   "In …
#>  6 /tmp/Rtmpw4ETZK/file1d6b509cea2… 3aa8… # 27… ## 2… ### … "p"   "Thi…
#>  7 /tmp/Rtmpw4ETZK/file1d6b509cea2… 3aa8… # 27… ## 2… ### … ""    "```…
#>  8 /tmp/Rtmpw4ETZK/file1d6b509cea2… 3aa8… # 27… ## 2… NA    "p"   "`[`…
#>  9 /tmp/Rtmpw4ETZK/file1d6b509cea2… 3aa8… # 27… ## 2… ### … "p"   "The…
#> 10 /tmp/Rtmpw4ETZK/file1d6b509cea2… 3aa8… # 27… ## 2… ### … ""    "1." 
#> # ℹ 110 more rows
…
